wave.vcd
$date
	Fri Apr 25 15:05:21 2025
$end
$version
	ModelSim Version 2020.1
$end
$timescale
	1ps
$end

$scope module tb_dtm_jtag_tap $end
$var reg 1 ! tck_i $end
$var reg 1 " tms_i $end
$var reg 1 # td_i $end
$var reg 1 $ trst_ni $end
$var reg 1 % td_o $end
$var reg 1 & tdo_oe_o $end
$var reg 1 ' dmi_clear_o $end
$var reg 1 ( update_o $end
$var reg 1 ) capture_o $end
$var reg 1 * shift_o $end
$var reg 1 + tdi_o $end
$var reg 1 , tck_o $end
$var reg 1 - dtmcs_select_o $end
$var reg 1 . dtmcs_tdo_i $end
$var reg 1 / dmi_select_o $end
$var reg 1 0 dmi_tdo_i $end

$scope task scan_ir $end
$upscope $end

$scope task scan_dr $end
$upscope $end

$scope module dut $end
$var parameter 32 1 IdCodeValue $end
$var wire 1 2 tck_i $end
$var wire 1 3 tms_i $end
$var wire 1 4 td_i $end
$var wire 1 5 trst_ni $end
$var reg 1 6 td_o $end
$var reg 1 7 tdo_oe_o $end
$var reg 1 8 dmi_clear_o $end
$var reg 1 9 update_o $end
$var reg 1 : capture_o $end
$var reg 1 ; shift_o $end
$var reg 1 < tdi_o $end
$var reg 1 = tck_o $end
$var reg 1 > dtmcs_select_o $end
$var wire 1 ? dtmcs_tdo_i $end
$var reg 1 @ dmi_select_o $end
$var wire 1 A dmi_tdo_i $end
$var reg 5 B jtag_ir_shift_d [4:0] $end
$var reg 5 C jtag_ir_shift_q [4:0] $end
$var reg 5 D jtag_ir_d [4:0] $end
$var reg 5 E jtag_ir_q [4:0] $end
$var reg 1 F shift_ir $end
$var reg 1 G capture_ir $end
$var reg 1 H test_logic_reset $end
$var reg 1 I update_ir $end
$var reg 1 J bypass_select $end
$var reg 1 K idcode_select $end
$var reg 1 L shift_dr $end
$var reg 1 M capture_dr $end
$var reg 1 N update_dr $end
$var reg 1 O tdo_sel $end
$var reg 4 P tap_state_d [3:0] $end
$var reg 4 Q tap_state_q [3:0] $end
$var reg 32 R idcode_d [31:0] $end
$var reg 32 S idcode_q [31:0] $end
$var reg 1 T bypass_d $end
$var reg 1 U bypass_q $end

$scope begin ir_update $end
$upscope $end

$scope begin dr_selection $end
$upscope $end

$scope begin output_selection $end
$upscope $end

$scope begin tdo_regs $end
$upscope $end

$scope begin tap_fsm $end
$upscope $end

$scope begin update_value $end
$upscope $end
$upscope $end
$upscope $end
$enddefinitions $end
#0
$dumpvars
0!
1"
0#
0$
0%
0&
1'
0(
0)
0*
0+
0,
0-
0.
0/
00
06
07
18
09
0:
0;
0<
0=
0>
0@
b0 B
b0 C
b1 D
b1 E
0F
0G
1H
0I
0J
1K
0L
0M
0N
1O
b0 P
b0 Q
b11011110101011011011111011101111 R
b11011110101011011011111011101111 S
0T
0U
b11011110101011011011111011101111 1
02
13
04
05
0?
0A
$end
#20
1!
12
1=
1,
#40
1$
0!
15
02
0=
0,
#60
1!
12
1=
1,
16
1%
#80
0!
02
0=
0,
#100
1!
12
1=
1,
#120
0!
02
0=
0,
#140
0"
1!
03
12
1=
1,
0H
b1 P
1H
#160
0!
02
0=
0,
#180
1"
1!
13
12
1=
1,
0H
b0 P
1H
b1 Q
0H
b10 P
08
0'
#200
0!
02
0=
0,
#220
1!
12
1=
1,
b10 Q
b1001 P
#240
0!
02
0=
0,
#260
0"
1!
03
12
1=
1,
b11 P
b1001 Q
b1010 P
#280
0!
02
0=
0,
#300
1!
12
1=
1,
b1010 Q
1G
b1011 P
b101 B
#320
0!
02
0=
0,
#340
1#
1!
14
12
1=
1<
1+
1,
b0 B
b101 B
b101 C
b1011 Q
0G
1F
b10010 B
#360
0!
02
0=
0,
#380
0#
1!
04
12
1=
0<
0+
1,
b101 B
b10 B
b10010 C
17
1&
b10010 B
b1001 B
0O
#400
0!
02
0=
0,
#420
1!
12
1=
1,
b1001 C
06
0%
b100 B
1O
#440
0!
02
0=
0,
#460
1!
12
1=
1,
b100 C
16
1%
b10 B
0O
#480
0!
02
0=
0,
#500
1"
1#
1!
13
14
12
1=
1<
1+
1,
b100 B
b10010 B
0F
1F
b1100 P
b100 B
b10010 B
b10 C
06
0%
b10 B
b10001 B
#520
0!
02
0=
0,
#540
1!
12
1=
1,
b10001 C
b1100 Q
0F
b1111 P
1O
#560
0!
02
0=
0,
#580
0"
1!
03
12
1=
1,
b1101 P
16
07
b1111 Q
0&
1%
1I
b1 P
b10001 D
#600
0!
02
0=
0,
#620
1"
1!
13
12
1=
1,
0I
1I
b10 P
b1 D
b10001 D
b10001 E
b1 Q
0I
0K
1@
0O
1/
#640
0!
02
0=
0,
#660
0"
1!
03
12
1=
1,
b1 P
06
b10 Q
0%
b11 P
#680
0!
02
0=
0,
#700
1!
12
1=
1,
b11 Q
1M
b100 P
1:
1)
#720
0!
02
0=
0,
#740
0#
1!
04
12
1=
0<
0+
1,
b100 Q
0M
1L
1;
0:
0)
1*
#760
0!
02
0=
0,
#780
1#
1!
14
12
1=
1<
1+
1,
17
1&
#800
0!
02
0=
0,
#820
1!
12
1=
1,
#840
0!
02
0=
0,
#860
0#
1!
04
12
1=
0<
0+
1,
#880
0!
02
0=
0,
#900
1!
12
1=
1,
#920
0!
02
0=
0,
#940
1!
12
1=
1,
#960
0!
02
0=
0,
#980
1!
12
1=
1,
#1000
0!
02
0=
0,
#1020
1!
12
1=
1,
#1040
0!
02
0=
0,
#1060
1#
1!
14
12
1=
1<
1+
1,
#1080
0!
02
0=
0,
#1100
1!
12
1=
1,
#1120
0!
02
0=
0,
#1140
1!
12
1=
1,
#1160
0!
02
0=
0,
#1180
1!
12
1=
1,
#1200
0!
02
0=
0,
#1220
1!
12
1=
1,
#1240
0!
02
0=
0,
#1260
1!
12
1=
1,
#1280
0!
02
0=
0,
#1300
1!
12
1=
1,
#1320
0!
02
0=
0,
#1340
1!
12
1=
1,
#1360
0!
02
0=
0,
#1380
1!
12
1=
1,
#1400
0!
02
0=
0,
#1420
1!
12
1=
1,
#1440
0!
02
0=
0,
#1460
1!
12
1=
1,
#1480
0!
02
0=
0,
#1500
1!
12
1=
1,
#1520
0!
02
0=
0,
#1540
1!
12
1=
1,
#1560
0!
02
0=
0,
#1580
1!
12
1=
1,
#1600
0!
02
0=
0,
#1620
1!
12
1=
1,
#1640
0!
02
0=
0,
#1660
1!
12
1=
1,
#1680
0!
02
0=
0,
#1700
1!
12
1=
1,
#1720
0!
02
0=
0,
#1740
1!
12
1=
1,
#1760
0!
02
0=
0,
#1780
1!
12
1=
1,
#1800
0!
02
0=
0,
#1820
1!
12
1=
1,
#1840
0!
02
0=
0,
#1860
1!
12
1=
1,
#1880
0!
02
0=
0,
#1900
0#
1!
04
12
1=
0<
0+
1,
#1920
0!
02
0=
0,
#1940
1!
12
1=
1,
#1960
0!
02
0=
0,
#1980
1!
12
1=
1,
#2000
0!
02
0=
0,
#2020
1!
12
1=
1,
#2040
0!
02
0=
0,
#2060
1!
12
1=
1,
#2080
0!
02
0=
0,
#2100
1!
12
1=
1,
#2120
0!
02
0=
0,
#2140
1!
12
1=
1,
#2160
0!
02
0=
0,
#2180
1!
12
1=
1,
#2200
0!
02
0=
0,
#2220
1!
12
1=
1,
#2240
0!
02
0=
0,
#2260
1#
1!
14
12
1=
1<
1+
1,
#2280
0!
02
0=
0,
#2300
0#
1!
04
12
1=
0<
0+
1,
#2320
0!
02
0=
0,
#2340
1!
12
1=
1,
#2360
0!
02
0=
0,
#2380
1"
1!
13
12
1=
1,
0L
1L
b101 P
#2400
0!
02
0=
0,
#2420
1!
12
1=
1,
b101 Q
0L
b1000 P
0;
0*
#2440
0!
02
0=
0,
#2460
0"
1!
03
12
1=
1,
b110 P
07
b1000 Q
0&
1N
b1 P
19
1(
#2480
0!
02
0=
0,
#2500
1!
12
1=
1,
b1 Q
0N
09
0(
#2520
0!
02
0=
0,
#2540
1!
12
1=
1,
#2560
0!
02
0=
0,
#2580
1!
12
1=
1,
#2600
0!
02
0=
0,
#2620
1!
12
1=
1,
#2640
0!
02
0=
0,
#2660
1!
12
1=
1,
#2680
0!
02
0=
0,
