wave_dmi_jtag.vcd
$date
	Sat Apr 26 15:36:28 2025
$end
$version
	ModelSim Version 2020.1
$end
$timescale
	1ps
$end

$scope module tb_dmi_jtag $end
$var reg 1 ! tck_i $end
$var reg 1 " tms_i $end
$var reg 1 # td_i $end
$var reg 1 $ trst_ni $end
$var reg 1 % td_o $end
$var reg 1 & tdo_oe_o $end
$var reg 1 ' dmi_clear_o $end
$var reg 41 ( dmi_req_o [40:0] $end
$var reg 1 ) dmi_req_valid_o $end
$var reg 1 * dmi_req_ready_i $end
$var reg 34 + dmi_resp_i [33:0] $end
$var reg 1 , dmi_resp_ready_o $end
$var reg 1 - dmi_resp_valid_i $end

$scope task scan_ir $end
$upscope $end

$scope task scan_dr $end
$upscope $end

$scope module dut $end
$var wire 1 . tck_i $end
$var wire 1 / tms_i $end
$var wire 1 0 td_i $end
$var wire 1 1 trst_ni $end
$var reg 1 2 td_o $end
$var reg 1 3 tdo_oe_o $end
$var reg 1 4 dmi_clear_o $end
$var reg 41 5 dmi_req_o [40:0] $end
$var reg 1 6 dmi_req_valid_o $end
$var wire 1 7 dmi_req_ready_i $end
$var reg 34 8 dmi_resp_i [33:0] $end
$var reg 1 9 dmi_resp_ready_o $end
$var wire 1 : dmi_resp_valid_i $end
$var reg 1 ; update $end
$var reg 1 < capture $end
$var reg 1 = shift $end
$var reg 1 > dmi_select $end
$var reg 1 ? dtmcs_select $end
$var reg 1 @ dmi_tdo $end
$var reg 1 A dtmcs_tdo $end
$var reg 1 B tdi $end
$var reg 1 C tck $end

$scope module i_tap $end
$var parameter 32 D IdCodeValue $end
$var wire 1 . tck_i $end
$var wire 1 / tms_i $end
$var wire 1 0 td_i $end
$var wire 1 1 trst_ni $end
$var reg 1 E td_o $end
$var reg 1 F tdo_oe_o $end
$var reg 1 G dmi_clear_o $end
$var reg 1 H update_o $end
$var reg 1 I capture_o $end
$var reg 1 J shift_o $end
$var reg 1 K tdi_o $end
$var reg 1 L tck_o $end
$var reg 1 M dtmcs_select_o $end
$var wire 1 N dtmcs_tdo_i $end
$var reg 1 O dmi_select_o $end
$var wire 1 P dmi_tdo_i $end
$var reg 5 Q jtag_ir_shift_d [4:0] $end
$var reg 5 R jtag_ir_shift_q [4:0] $end
$var reg 5 S jtag_ir_d [4:0] $end
$var reg 5 T jtag_ir_q [4:0] $end
$var reg 1 U shift_ir $end
$var reg 1 V capture_ir $end
$var reg 1 W test_logic_reset $end
$var reg 1 X update_ir $end
$var reg 1 Y bypass_select $end
$var reg 1 Z idcode_select $end
$var reg 1 [ shift_dr $end
$var reg 1 \ capture_dr $end
$var reg 1 ] update_dr $end
$var reg 1 ^ tdo_sel $end
$var reg 4 _ tap_state_d [3:0] $end
$var reg 4 ` tap_state_q [3:0] $end
$var reg 32 a idcode_d [31:0] $end
$var reg 32 b idcode_q [31:0] $end
$var reg 1 c bypass_d $end
$var reg 1 d bypass_q $end

$scope begin ir_update $end
$upscope $end

$scope begin dr_selection $end
$upscope $end

$scope begin output_selection $end
$upscope $end

$scope begin tdo_regs $end
$upscope $end

$scope begin tap_fsm $end
$upscope $end

$scope begin update_value $end
$upscope $end
$upscope $end

$scope module i_dtm_regs $end
$var wire 1 e tck_i $end
$var wire 1 1 trst_ni $end
$var wire 1 f update $end
$var wire 1 g capture $end
$var wire 1 h shift $end
$var wire 1 i tdi $end
$var wire 1 j dmi_select $end
$var wire 1 k dtmcs_select $end
$var wire 1 l jtag_dmi_clear $end
$var reg 1 m dmi_tdo $end
$var reg 1 n dtmcs_tdo $end
$var reg 1 o tck_o $end
$var reg 1 p dmi_clear $end
$var reg 41 q dmi_req_o [40:0] $end
$var wire 1 7 dmi_req_ready $end
$var reg 1 r dmi_req_valid $end
$var reg 34 s dmi_resp [33:0] $end
$var reg 1 t dmi_resp_ready $end
$var wire 1 : dmi_resp_valid $end
$var reg 3 u state_d [2:0] $end
$var reg 3 v state_q [2:0] $end
$var reg 2 w error_d [1:0] $end
$var reg 2 x error_q [1:0] $end
$var reg 2 y op_d [1:0] $end
$var reg 2 z op_q [1:0] $end
$var reg 32 { dtmcs_d [31:0] $end
$var reg 32 | dtmcs_q [31:0] $end
$var reg 7 } address_d [6:0] $end
$var reg 7 ~ address_q [6:0] $end
$var reg 32 !! data_d [31:0] $end
$var reg 32 "! data_q [31:0] $end
$var reg 32 #! resp_data_d [31:0] $end
$var reg 32 $! resp_data_q [31:0] $end
$var reg 41 %! dmiaccess_d [40:0] $end
$var reg 41 &! dmiaccess_q [40:0] $end
$var reg 1 '! error_dmi_busy $end
$var reg 1 (! error_dmi_op_failed $end
$var reg 41 )! dmi [40:0] $end

$scope begin p_fsm $end
$upscope $end

$scope begin choose_dmiaccess $end
$upscope $end
$upscope $end
$upscope $end
$upscope $end
$enddefinitions $end
#0
$dumpvars
0!
1"
0#
0$
0%
0&
1'
b0 (
0)
1*
b0 +
1,
0-
02
03
14
b0 5
06
b0 8
19
0;
0<
0=
0>
0?
0@
0A
0B
0C
0E
0F
1G
0H
0I
0J
0K
0L
0M
0O
b0 Q
b0 R
b1 S
b1 T
0U
0V
1W
0X
0Y
1Z
0[
0\
0]
1^
b0 _
b0 `
b11011110101011011011111011101111 a
b11011110101011011011111011101111 b
0c
0d
0m
0n
0o
1p
b0 q
0r
b0 s
1t
b0 u
b0 v
b0 w
b0 x
b0 y
b0 z
b0 {
b0 |
b0 }
b0 ~
b0 !!
b0 "!
b0 #!
bx $!
b0 %!
b0 &!
0'!
0(!
b0 )!
b11011110101011011011111011101111 D
0.
1/
00
01
17
0:
0N
0P
0e
0f
0g
0h
0i
0j
0k
1l
$end
#20
1!
1.
1L
1C
1e
1o
b0 $!
#40
1$
0!
11
0.
0L
0C
0e
0o
#60
1!
1.
1L
1C
1e
1o
1E
12
1%
#80
0!
0.
0L
0C
0e
0o
#100
1!
1.
1L
1C
1e
1o
#120
0!
0.
0L
0C
0e
0o
#140
0"
1!
0/
1.
1L
1C
1e
1o
0W
b1 _
1W
#160
0!
0.
0L
0C
0e
0o
#180
1"
1!
1/
1.
1L
1C
1e
1o
0W
b0 _
1W
b1 `
0W
b10 _
0G
04
0'
0l
0p
#200
0!
0.
0L
0C
0e
0o
#220
1!
1.
1L
1C
1e
1o
b10 `
b1001 _
#240
0!
0.
0L
0C
0e
0o
#260
0"
1!
0/
1.
1L
1C
1e
1o
b11 _
b1001 `
b1010 _
#280
0!
0.
0L
0C
0e
0o
#300
1!
1.
1L
1C
1e
1o
b1010 `
1V
b1011 _
b101 Q
#320
0!
0.
0L
0C
0e
0o
#340
1#
1!
10
1.
1L
1K
1B
1C
1i
1e
1o
b0 Q
b101 Q
b101 R
b1011 `
0V
1U
b10010 Q
#360
0!
0.
0L
0C
0e
0o
#380
0#
1!
00
1.
1L
0K
0B
1C
0i
1e
1o
b101 Q
b10 Q
b10010 R
1F
13
1&
b10010 Q
b1001 Q
0^
#400
0!
0.
0L
0C
0e
0o
#420
1!
1.
1L
1C
1e
1o
b1001 R
0E
02
0%
b100 Q
1^
#440
0!
0.
0L
0C
0e
0o
#460
1!
1.
1L
1C
1e
1o
b100 R
1E
12
1%
b10 Q
0^
#480
0!
0.
0L
0C
0e
0o
#500
1"
1#
1!
1/
10
1.
1L
1K
1B
1C
1i
1e
1o
b100 Q
b10010 Q
0U
1U
b1100 _
b100 Q
b10010 Q
b10 R
0E
02
0%
b10 Q
b10001 Q
#520
0!
0.
0L
0C
0e
0o
#540
1!
1.
1L
1C
1e
1o
b10001 R
b1100 `
0U
b1111 _
1^
#560
0!
0.
0L
0C
0e
0o
#580
0"
1!
0/
1.
1L
1C
1e
1o
b1101 _
1E
0F
b1111 `
03
12
1%
0&
1X
b1 _
b10001 S
#600
0!
0.
0L
0C
0e
0o
#620
1"
1!
1/
1.
1L
1C
1e
1o
0X
1X
b10 _
b1 S
b10001 S
b10001 T
b1 `
0X
0Z
1O
0^
1>
1j
#640
0!
0.
0L
0C
0e
0o
#660
0"
1!
0/
1.
1L
1C
1e
1o
b1 _
0E
b10 `
02
0%
b11 _
#680
0!
0.
0L
0C
0e
0o
#700
1!
1.
1L
1C
1e
1o
b11 `
1\
b100 _
1I
1<
1g
#720
0!
0.
0L
0C
0e
0o
#740
0#
1!
00
1.
1L
0K
0B
1C
0i
1e
1o
b100 `
0\
1[
1J
0I
0<
1=
0g
1h
#760
0!
0.
0L
0C
0e
0o
#780
1#
1!
10
1.
1L
1K
1B
1C
1i
1e
1o
b10000000000000000000000000000000000000000 %!
1F
13
1&
#800
0!
0.
0L
0C
0e
0o
#820
1!
1.
1L
1C
1e
1o
b10000000000000000000000000000000000000000 &!
b10000000000000000000000000000000000000000 )!
b11000000000000000000000000000000000000000 %!
#840
0!
0.
0L
0C
0e
0o
#860
0#
1!
00
1.
1L
0K
0B
1C
0i
1e
1o
b10000000000000000000000000000000000000000 %!
b1000000000000000000000000000000000000000 %!
b11000000000000000000000000000000000000000 &!
b11000000000000000000000000000000000000000 )!
b11000000000000000000000000000000000000000 %!
b1100000000000000000000000000000000000000 %!
#880
0!
0.
0L
0C
0e
0o
#900
1!
1.
1L
1C
1e
1o
b1100000000000000000000000000000000000000 &!
b1100000000000000000000000000000000000000 )!
b110000000000000000000000000000000000000 %!
#920
0!
0.
0L
0C
0e
0o
#940
1!
1.
1L
1C
1e
1o
b110000000000000000000000000000000000000 &!
b110000000000000000000000000000000000000 )!
b11000000000000000000000000000000000000 %!
#960
0!
0.
0L
0C
0e
0o
#980
1!
1.
1L
1C
1e
1o
b11000000000000000000000000000000000000 &!
b11000000000000000000000000000000000000 )!
b1100000000000000000000000000000000000 %!
#1000
0!
0.
0L
0C
0e
0o
#1020
1!
1.
1L
1C
1e
1o
b1100000000000000000000000000000000000 &!
b1100000000000000000000000000000000000 )!
b110000000000000000000000000000000000 %!
#1040
0!
0.
0L
0C
0e
0o
#1060
1#
1!
10
1.
1L
1K
1B
1C
1i
1e
1o
b1100000000000000000000000000000000000 %!
b10000110000000000000000000000000000000000 %!
b110000000000000000000000000000000000 &!
b110000000000000000000000000000000000 )!
b110000000000000000000000000000000000 %!
b10000011000000000000000000000000000000000 %!
#1080
0!
0.
0L
0C
0e
0o
#1100
1!
1.
1L
1C
1e
1o
b10000011000000000000000000000000000000000 &!
b10000011000000000000000000000000000000000 )!
b11000001100000000000000000000000000000000 %!
#1120
0!
0.
0L
0C
0e
0o
#1140
1!
1.
1L
1C
1e
1o
b11000001100000000000000000000000000000000 &!
b11000001100000000000000000000000000000000 )!
b11100000110000000000000000000000000000000 %!
#1160
0!
0.
0L
0C
0e
0o
#1180
1!
1.
1L
1C
1e
1o
b11100000110000000000000000000000000000000 &!
b11100000110000000000000000000000000000000 )!
b11110000011000000000000000000000000000000 %!
#1200
0!
0.
0L
0C
0e
0o
#1220
1!
1.
1L
1C
1e
1o
b11110000011000000000000000000000000000000 &!
b11110000011000000000000000000000000000000 )!
b11111000001100000000000000000000000000000 %!
#1240
0!
0.
0L
0C
0e
0o
#1260
1!
1.
1L
1C
1e
1o
b11111000001100000000000000000000000000000 &!
b11111000001100000000000000000000000000000 )!
b11111100000110000000000000000000000000000 %!
#1280
0!
0.
0L
0C
0e
0o
#1300
1!
1.
1L
1C
1e
1o
b11111100000110000000000000000000000000000 &!
b11111100000110000000000000000000000000000 )!
b11111110000011000000000000000000000000000 %!
#1320
0!
0.
0L
0C
0e
0o
#1340
1!
1.
1L
1C
1e
1o
b11111110000011000000000000000000000000000 &!
b11111110000011000000000000000000000000000 )!
b11111111000001100000000000000000000000000 %!
#1360
0!
0.
0L
0C
0e
0o
#1380
1!
1.
1L
1C
1e
1o
b11111111000001100000000000000000000000000 &!
b11111111000001100000000000000000000000000 )!
b11111111100000110000000000000000000000000 %!
#1400
0!
0.
0L
0C
0e
0o
#1420
1!
1.
1L
1C
1e
1o
b11111111100000110000000000000000000000000 &!
b11111111100000110000000000000000000000000 )!
b11111111110000011000000000000000000000000 %!
#1440
0!
0.
0L
0C
0e
0o
#1460
1!
1.
1L
1C
1e
1o
b11111111110000011000000000000000000000000 &!
b11111111110000011000000000000000000000000 )!
b11111111111000001100000000000000000000000 %!
#1480
0!
0.
0L
0C
0e
0o
#1500
1!
1.
1L
1C
1e
1o
b11111111111000001100000000000000000000000 &!
b11111111111000001100000000000000000000000 )!
b11111111111100000110000000000000000000000 %!
#1520
0!
0.
0L
0C
0e
0o
#1540
1!
1.
1L
1C
1e
1o
b11111111111100000110000000000000000000000 &!
b11111111111100000110000000000000000000000 )!
b11111111111110000011000000000000000000000 %!
#1560
0!
0.
0L
0C
0e
0o
#1580
1!
1.
1L
1C
1e
1o
b11111111111110000011000000000000000000000 &!
b11111111111110000011000000000000000000000 )!
b11111111111111000001100000000000000000000 %!
#1600
0!
0.
0L
0C
0e
0o
#1620
1!
1.
1L
1C
1e
1o
b11111111111111000001100000000000000000000 &!
b11111111111111000001100000000000000000000 )!
b11111111111111100000110000000000000000000 %!
#1640
0!
0.
0L
0C
0e
0o
#1660
1!
1.
1L
1C
1e
1o
b11111111111111100000110000000000000000000 &!
b11111111111111100000110000000000000000000 )!
b11111111111111110000011000000000000000000 %!
#1680
0!
0.
0L
0C
0e
0o
#1700
1!
1.
1L
1C
1e
1o
b11111111111111110000011000000000000000000 &!
b11111111111111110000011000000000000000000 )!
b11111111111111111000001100000000000000000 %!
#1720
0!
0.
0L
0C
0e
0o
#1740
1!
1.
1L
1C
1e
1o
b11111111111111111000001100000000000000000 &!
b11111111111111111000001100000000000000000 )!
b11111111111111111100000110000000000000000 %!
#1760
0!
0.
0L
0C
0e
0o
#1780
1!
1.
1L
1C
1e
1o
b11111111111111111100000110000000000000000 &!
b11111111111111111100000110000000000000000 )!
b11111111111111111110000011000000000000000 %!
#1800
0!
0.
0L
0C
0e
0o
#1820
1!
1.
1L
1C
1e
1o
b11111111111111111110000011000000000000000 &!
b11111111111111111110000011000000000000000 )!
b11111111111111111111000001100000000000000 %!
#1840
0!
0.
0L
0C
0e
0o
#1860
1!
1.
1L
1C
1e
1o
b11111111111111111111000001100000000000000 &!
b11111111111111111111000001100000000000000 )!
b11111111111111111111100000110000000000000 %!
#1880
0!
0.
0L
0C
0e
0o
#1900
0#
1!
00
1.
1L
0K
0B
1C
0i
1e
1o
b11111111111111111111000001100000000000000 %!
b1111111111111111111100000110000000000000 %!
b11111111111111111111100000110000000000000 &!
b11111111111111111111100000110000000000000 )!
b11111111111111111111100000110000000000000 %!
b1111111111111111111110000011000000000000 %!
#1920
0!
0.
0L
0C
0e
0o
#1940
1!
1.
1L
1C
1e
1o
b1111111111111111111110000011000000000000 &!
b1111111111111111111110000011000000000000 )!
b111111111111111111111000001100000000000 %!
#1960
0!
0.
0L
0C
0e
0o
#1980
1!
1.
1L
1C
1e
1o
b111111111111111111111000001100000000000 &!
b111111111111111111111000001100000000000 )!
b11111111111111111111100000110000000000 %!
#2000
0!
0.
0L
0C
0e
0o
#2020
1!
1.
1L
1C
1e
1o
b11111111111111111111100000110000000000 &!
b11111111111111111111100000110000000000 )!
b1111111111111111111110000011000000000 %!
#2040
0!
0.
0L
0C
0e
0o
#2060
1!
1.
1L
1C
1e
1o
b1111111111111111111110000011000000000 &!
b1111111111111111111110000011000000000 )!
b111111111111111111111000001100000000 %!
#2080
0!
0.
0L
0C
0e
0o
#2100
1!
1.
1L
1C
1e
1o
b111111111111111111111000001100000000 &!
b111111111111111111111000001100000000 )!
b11111111111111111111100000110000000 %!
#2120
0!
0.
0L
0C
0e
0o
#2140
1!
1.
1L
1C
1e
1o
b11111111111111111111100000110000000 &!
b11111111111111111111100000110000000 )!
b1111111111111111111110000011000000 %!
#2160
0!
0.
0L
0C
0e
0o
#2180
1!
1.
1L
1C
1e
1o
b1111111111111111111110000011000000 &!
b1111111111111111111110000011000000 )!
b111111111111111111111000001100000 %!
#2200
0!
0.
0L
0C
0e
0o
#2220
1!
1.
1L
1C
1e
1o
b111111111111111111111000001100000 &!
b111111111111111111111000001100000 )!
b11111111111111111111100000110000 %!
#2240
0!
0.
0L
0C
0e
0o
#2260
1#
1!
10
1.
1L
1K
1B
1C
1i
1e
1o
b111111111111111111111000001100000 %!
b10000000011111111111111111111100000110000 %!
b11111111111111111111100000110000 &!
b11111111111111111111100000110000 )!
b11111111111111111111100000110000 %!
b10000000001111111111111111111110000011000 %!
#2280
0!
0.
0L
0C
0e
0o
#2300
0#
1!
00
1.
1L
0K
0B
1C
0i
1e
1o
b11111111111111111111100000110000 %!
b1111111111111111111110000011000 %!
b10000000001111111111111111111110000011000 &!
b10000000001111111111111111111110000011000 )!
b10000000001111111111111111111110000011000 %!
b1000000000111111111111111111111000001100 %!
#2320
0!
0.
0L
0C
0e
0o
#2340
1"
1!
1/
1.
1L
1C
1e
1o
0[
1[
b101 _
b1000000000111111111111111111111000001100 &!
b1000000000111111111111111111111000001100 )!
b100000000011111111111111111111100000110 %!
#2360
0!
0.
0L
0C
0e
0o
#2380
1!
1.
1L
1C
1e
1o
b100000000011111111111111111111100000110 &!
b101 `
b100000000011111111111111111111100000110 )!
0[
b1000 _
b10000000001111111111111111111110000011 %!
0J
0=
0h
b100000000011111111111111111111100000110 %!
#2400
0!
0.
0L
0C
0e
0o
#2420
0"
1!
0/
1.
1L
1C
1e
1o
b110 _
0F
b1000 `
03
0&
1]
b1 _
1H
1;
1f
b10000 }
b111111111111111111111000001 !!
b10 y
b11 u
#2440
0!
0.
0L
0C
0e
0o
#2460
1!
1.
1L
1C
1e
1o
b10000 ~
b111111111111111111111000001 "!
b10 z
b11 v
b1 `
b1000000000000000000000000000000000 q
b1000000111111111111111111111000001 q
b100001000000111111111111111111111000001 q
b100001000000111111111111111111111000001 5
b100001000000111111111111111111111000001 (
0]
1r
b100 u
1'!
b11 w
16
0H
0;
1)
0f
b0 w
b11 u
0r
0'!
1r
b100 u
#2480
0!
0.
0L
0C
0e
0o
#2500
1!
1.
1L
1C
1e
1o
b100 v
0r
06
0)
#2520
0!
0.
0L
0C
0e
0o
#2540
1!
1.
1L
1C
1e
1o
#2560
0!
0.
0L
0C
0e
0o
#2580
1!
1.
1L
1C
1e
1o
#2600
0!
0.
0L
0C
0e
0o
#2620
1-
1!
1:
1.
1L
1C
1e
1o
b0 u
#2640
0!
0.
0L
0C
0e
0o
#2660
1!
1.
1L
1C
1e
1o
b0 v
#2680
0!
0.
0L
0C
0e
0o
#2700
1!
1.
1L
1C
1e
1o
#2720
0-
1"
0!
0:
1/
0.
0L
0C
0e
0o
b10 _
#2740
1!
1.
1L
1C
1e
1o
b10 `
b1001 _
#2760
0"
0!
0/
0.
0L
0C
0e
0o
b11 _
#2780
1!
1.
1L
1C
1e
1o
b11 `
1\
b100 _
1I
1<
1g
b100000000000000000000000000000000000000 %!
#2800
0!
0.
0L
0C
0e
0o
#2820
1!
1.
1L
1C
1e
1o
b100000000000000000000000000000000000000 &!
b100 `
b100000000000000000000000000000000000000 )!
0\
1[
1J
0I
0<
1=
0g
1h
b10000000000000000000000000000000000000 %!
#2840
1#
0!
10
0.
0L
1K
1B
0C
1i
0e
0o
b100000000000000000000000000000000000000 %!
b10010000000000000000000000000000000000000 %!
#2860
1!
1.
1L
1C
1e
1o
b10010000000000000000000000000000000000000 &!
1F
13
b10010000000000000000000000000000000000000 )!
1&
b11001000000000000000000000000000000000000 %!
#2880
0#
0!
00
0.
0L
0K
0B
0C
0i
0e
0o
b10010000000000000000000000000000000000000 %!
b1001000000000000000000000000000000000000 %!
#2900
1!
1.
1L
1C
1e
1o
b1001000000000000000000000000000000000000 &!
b1001000000000000000000000000000000000000 )!
b100100000000000000000000000000000000000 %!
#2920
0!
0.
0L
0C
0e
0o
#2940
1!
1.
1L
1C
1e
1o
b100100000000000000000000000000000000000 &!
b100100000000000000000000000000000000000 )!
b10010000000000000000000000000000000000 %!
#2960
0!
0.
0L
0C
0e
0o
#2980
1!
1.
1L
1C
1e
1o
b10010000000000000000000000000000000000 &!
b10010000000000000000000000000000000000 )!
b1001000000000000000000000000000000000 %!
#3000
0!
0.
0L
0C
0e
0o
#3020
1!
1.
1L
1C
1e
1o
b1001000000000000000000000000000000000 &!
b1001000000000000000000000000000000000 )!
b100100000000000000000000000000000000 %!
#3040
0!
0.
0L
0C
0e
0o
#3060
1!
1.
1L
1C
1e
1o
b100100000000000000000000000000000000 &!
b100100000000000000000000000000000000 )!
b10010000000000000000000000000000000 %!
#3080
0!
0.
0L
0C
0e
0o
#3100
1!
1.
1L
1C
1e
1o
b10010000000000000000000000000000000 &!
b10010000000000000000000000000000000 )!
b1001000000000000000000000000000000 %!
#3120
0!
0.
0L
0C
0e
0o
#3140
1!
1.
1L
1C
1e
1o
b1001000000000000000000000000000000 &!
b1001000000000000000000000000000000 )!
b100100000000000000000000000000000 %!
#3160
0!
0.
0L
0C
0e
0o
#3180
1!
1.
1L
1C
1e
1o
b100100000000000000000000000000000 &!
b100100000000000000000000000000000 )!
b10010000000000000000000000000000 %!
#3200
0!
0.
0L
0C
0e
0o
#3220
1!
1.
1L
1C
1e
1o
b10010000000000000000000000000000 &!
b10010000000000000000000000000000 )!
b1001000000000000000000000000000 %!
#3240
0!
0.
0L
0C
0e
0o
#3260
1!
1.
1L
1C
1e
1o
b1001000000000000000000000000000 &!
b1001000000000000000000000000000 )!
b100100000000000000000000000000 %!
#3280
0!
0.
0L
0C
0e
0o
#3300
1!
1.
1L
1C
1e
1o
b100100000000000000000000000000 &!
b100100000000000000000000000000 )!
b10010000000000000000000000000 %!
#3320
0!
0.
0L
0C
0e
0o
#3340
1!
1.
1L
1C
1e
1o
b10010000000000000000000000000 &!
b10010000000000000000000000000 )!
b1001000000000000000000000000 %!
#3360
0!
0.
0L
0C
0e
0o
#3380
1!
1.
1L
1C
1e
1o
b1001000000000000000000000000 &!
b1001000000000000000000000000 )!
b100100000000000000000000000 %!
#3400
0!
0.
0L
0C
0e
0o
#3420
1!
1.
1L
1C
1e
1o
b100100000000000000000000000 &!
b100100000000000000000000000 )!
b10010000000000000000000000 %!
#3440
0!
0.
0L
0C
0e
0o
#3460
1!
1.
1L
1C
1e
1o
b10010000000000000000000000 &!
b10010000000000000000000000 )!
b1001000000000000000000000 %!
#3480
0!
0.
0L
0C
0e
0o
#3500
1!
1.
1L
1C
1e
1o
b1001000000000000000000000 &!
b1001000000000000000000000 )!
b100100000000000000000000 %!
#3520
0!
0.
0L
0C
0e
0o
#3540
1!
1.
1L
1C
1e
1o
b100100000000000000000000 &!
b100100000000000000000000 )!
b10010000000000000000000 %!
#3560
0!
0.
0L
0C
0e
0o
#3580
1!
1.
1L
1C
1e
1o
b10010000000000000000000 &!
b10010000000000000000000 )!
b1001000000000000000000 %!
#3600
0!
0.
0L
0C
0e
0o
#3620
1!
1.
1L
1C
1e
1o
b1001000000000000000000 &!
b1001000000000000000000 )!
b100100000000000000000 %!
#3640
0!
0.
0L
0C
0e
0o
#3660
1!
1.
1L
1C
1e
1o
b100100000000000000000 &!
b100100000000000000000 )!
b10010000000000000000 %!
#3680
0!
0.
0L
0C
0e
0o
#3700
1!
1.
1L
1C
1e
1o
b10010000000000000000 &!
b10010000000000000000 )!
b1001000000000000000 %!
#3720
0!
0.
0L
0C
0e
0o
#3740
1!
1.
1L
1C
1e
1o
b1001000000000000000 &!
b1001000000000000000 )!
b100100000000000000 %!
#3760
0!
0.
0L
0C
0e
0o
#3780
1!
1.
1L
1C
1e
1o
b100100000000000000 &!
b100100000000000000 )!
b10010000000000000 %!
#3800
0!
0.
0L
0C
0e
0o
#3820
1!
1.
1L
1C
1e
1o
b10010000000000000 &!
b10010000000000000 )!
b1001000000000000 %!
#3840
0!
0.
0L
0C
0e
0o
#3860
1!
1.
1L
1C
1e
1o
b1001000000000000 &!
b1001000000000000 )!
b100100000000000 %!
#3880
0!
0.
0L
0C
0e
0o
#3900
1!
1.
1L
1C
1e
1o
b100100000000000 &!
b100100000000000 )!
b10010000000000 %!
#3920
0!
0.
0L
0C
0e
0o
#3940
1!
1.
1L
1C
1e
1o
b10010000000000 &!
b10010000000000 )!
b1001000000000 %!
#3960
0!
0.
0L
0C
0e
0o
#3980
1!
1.
1L
1C
1e
1o
b1001000000000 &!
b1001000000000 )!
b100100000000 %!
#4000
0!
0.
0L
0C
0e
0o
#4020
1!
1.
1L
1C
1e
1o
b100100000000 &!
b100100000000 )!
b10010000000 %!
#4040
0!
0.
0L
0C
0e
0o
#4060
1!
1.
1L
1C
1e
1o
b10010000000 &!
b10010000000 )!
b1001000000 %!
#4080
0!
0.
0L
0C
0e
0o
#4100
1!
1.
1L
1C
1e
1o
b1001000000 &!
b1001000000 )!
b100100000 %!
#4120
0!
0.
0L
0C
0e
0o
#4140
1!
1.
1L
1C
1e
1o
b100100000 &!
b100100000 )!
b10010000 %!
#4160
0!
0.
0L
0C
0e
0o
#4180
1!
1.
1L
1C
1e
1o
b10010000 &!
b10010000 )!
b1001000 %!
#4200
0!
0.
0L
0C
0e
0o
#4220
1!
1.
1L
1C
1e
1o
b1001000 &!
b1001000 )!
b100100 %!
#4240
0!
0.
0L
0C
0e
0o
#4260
1!
1.
1L
1C
1e
1o
b100100 &!
b100100 )!
b10010 %!
#4280
0!
0.
0L
0C
0e
0o
#4300
1!
1.
1L
1C
1e
1o
b10010 &!
b10010 )!
b1001 %!
#4320
0!
0.
0L
0C
0e
0o
#4340
1!
1.
1L
1C
1e
1o
b1001 &!
b1001 )!
1m
1@
1P
1^
b100 %!
#4360
1#
0!
10
0.
0L
1K
1B
0C
1i
0e
0o
b1001 %!
b10000000000000000000000000000000000000100 %!
#4380
1!
1.
1L
1C
1e
1o
b10000000000000000000000000000000000000100 &!
1E
12
b10000000000000000000000000000000000000100 )!
0m
0@
1%
0P
0^
b11000000000000000000000000000000000000010 %!
#4400
0#
0!
00
0.
0L
0K
0B
0C
0i
0e
0o
b10000000000000000000000000000000000000100 %!
b1000000000000000000000000000000000000010 %!
#4420
1!
1.
1L
1C
1e
1o
b1000000000000000000000000000000000000010 &!
0E
02
b1000000000000000000000000000000000000010 )!
0%
b100000000000000000000000000000000000001 %!
#4440
1"
0!
1/
0.
0L
0C
0e
0o
0[
1[
b101 _
#4460
1!
1.
1L
1C
1e
1o
b100000000000000000000000000000000000001 &!
b101 `
b100000000000000000000000000000000000001 )!
1m
1@
1P
1^
0[
b1000 _
b10000000000000000000000000000000000000 %!
0J
0=
0h
b100000000000000000000000000000000000001 %!
#4480
0!
0.
0L
0C
0e
0o
#4500
1!
1.
1L
1C
1e
1o
1E
0F
b1000 `
03
12
1%
0&
1]
b10 _
1H
1;
1f
b0 !!
b1 y
b1 u
#4520
0"
0!
0/
0.
0L
0C
0e
0o
0]
1]
b1 _
#4540
1!
1.
1L
1C
1e
1o
b0 "!
b1 z
b1 v
b1 `
b100000100000111111111111111111111000001 q
b100000100000000000000000000000000000000 q
b100000100000000000000000000000000000000 5
b100000100000000000000000000000000000000 (
0]
1r
b10 u
1'!
b11 w
16
0H
0;
1)
0f
b0 w
b1 u
0r
0'!
1r
b10 u
#4560
0!
0.
0L
0C
0e
0o
#4580
1!
1.
1L
1C
1e
1o
b10 v
0r
06
0)
#4600
0!
0.
0L
0C
0e
0o
#4620
1!
1.
1L
1C
1e
1o
#4640
0!
0.
0L
0C
0e
0o
#4660
1!
1.
1L
1C
1e
1o
#4680
0!
0.
0L
0C
0e
0o
#4700
1!
1.
1L
1C
1e
1o
#4720
b1010000 +
1-
0!
b1010000 8
b1010000 s
1:
0.
0L
0C
0e
0o
b10100 #!
b0 u
#4740
1!
1.
1L
1C
1e
1o
b10100 $!
b0 v
#4760
0!
0.
0L
0C
0e
0o
#4780
1!
1.
1L
1C
1e
1o
#4800
0!
0.
0L
0C
0e
0o
#4820
0-
1!
0:
1.
1L
1C
1e
1o
#4840
0!
0.
0L
0C
0e
0o
#4860
1"
1!
1/
1.
1L
1C
1e
1o
b10 _
#4880
0!
0.
0L
0C
0e
0o
#4900
0"
1!
0/
1.
1L
1C
1e
1o
b1 _
b10 `
b11 _
#4920
0!
0.
0L
0C
0e
0o
#4940
1!
1.
1L
1C
1e
1o
b11 `
1\
b100 _
1I
1<
1g
b100000000000000000000000000000001010000 %!
#4960
0!
0.
0L
0C
0e
0o
#4980
1!
1.
1L
1C
1e
1o
b100000000000000000000000000000001010000 &!
b100 `
b100000000000000000000000000000001010000 )!
0m
0@
0P
0^
0\
1[
1J
0I
0<
1=
0g
1h
b10000000000000000000000000000000101000 %!
#5000
0!
0.
0L
0C
0e
0o
#5020
1!
1.
1L
1C
1e
1o
b10000000000000000000000000000000101000 &!
0E
1F
13
02
b10000000000000000000000000000000101000 )!
0%
1&
b1000000000000000000000000000000010100 %!
#5040
0!
0.
0L
0C
0e
0o
#5060
1!
1.
1L
1C
1e
1o
b1000000000000000000000000000000010100 &!
b1000000000000000000000000000000010100 )!
b100000000000000000000000000000001010 %!
