wave_dmi_jtag.vcd
$date
	Thu May  8 08:47:16 2025
$end
$version
	ModelSim Version 2020.1
$end
$timescale
	1ps
$end

$scope module tb_dmi_jtag $end
$var reg 1 ! tck_i $end
$var reg 1 " clk $end
$var reg 1 # trst_ni $end
$var reg 1 $ rst_ni $end
$var reg 1 % tms_i $end
$var reg 1 & td_i $end
$var reg 1 ' td_o $end
$var reg 1 ( tdo_oe_o $end
$var reg 41 ) dbg_dmi_req_o [40:0] $end
$var reg 1 * dbg_dmi_req_valid_o $end
$var reg 1 + dbg_dmi_req_ready_i $end
$var reg 34 , dbg_dmi_resp_i [33:0] $end
$var reg 1 - dbg_dmi_resp_ready_o $end
$var reg 1 . dbg_dmi_resp_valid_i $end
$var reg 1 / dbg_dmi_clear_o $end

$scope task scan_ir $end
$upscope $end

$scope task scan_dr $end
$upscope $end

$scope module dut $end
$var wire 1 0 tck_i $end
$var wire 1 1 tms_i $end
$var wire 1 2 td_i $end
$var wire 1 3 trst_ni $end
$var reg 1 4 td_o $end
$var reg 1 5 tdo_oe_o $end
$var wire 1 6 clk $end
$var wire 1 7 rst_ni $end
$var reg 1 8 dbg_dmi_clear_o $end
$var reg 41 9 dbg_dmi_req_o [40:0] $end
$var reg 1 : dbg_dmi_req_valid_o $end
$var wire 1 ; dbg_dmi_req_ready_i $end
$var reg 34 < dbg_dmi_resp_i [33:0] $end
$var reg 1 = dbg_dmi_resp_ready_o $end
$var wire 1 > dbg_dmi_resp_valid_i $end
$var reg 1 ? update $end
$var reg 1 @ capture $end
$var reg 1 A shift $end
$var reg 1 B dmi_select $end
$var reg 1 C dtmcs_select $end
$var reg 1 D dmi_tdo $end
$var reg 1 E dtmcs_tdo $end
$var reg 1 F tdi $end
$var reg 1 G tck $end
$var reg 1 H jtag_dmi_clear $end
$var reg 41 I jtag_dmi_req [40:0] $end
$var reg 1 J jtag_dmi_req_valid $end
$var reg 1 K jtag_dmi_req_ready $end
$var reg 34 L jtag_dmi_resp [33:0] $end
$var reg 1 M jtag_dmi_resp_ready $end
$var reg 1 N jtag_dmi_resp_valid $end

$scope module i_tap $end
$var parameter 32 O IdCodeValue $end
$var wire 1 0 tck_i $end
$var wire 1 1 tms_i $end
$var wire 1 2 td_i $end
$var wire 1 3 trst_ni $end
$var reg 1 P td_o $end
$var reg 1 Q tdo_oe_o $end
$var reg 1 R dmi_clear_o $end
$var reg 1 S update_o $end
$var reg 1 T capture_o $end
$var reg 1 U shift_o $end
$var reg 1 V tdi_o $end
$var reg 1 W tck_o $end
$var reg 1 X dtmcs_select_o $end
$var wire 1 Y dtmcs_tdo_i $end
$var reg 1 Z dmi_select_o $end
$var wire 1 [ dmi_tdo_i $end
$var reg 5 \ jtag_ir_shift_d [4:0] $end
$var reg 5 ] jtag_ir_shift_q [4:0] $end
$var reg 5 ^ jtag_ir_d [4:0] $end
$var reg 5 _ jtag_ir_q [4:0] $end
$var reg 1 ` shift_ir $end
$var reg 1 a capture_ir $end
$var reg 1 b test_logic_reset $end
$var reg 1 c update_ir $end
$var reg 1 d bypass_select $end
$var reg 1 e idcode_select $end
$var reg 1 f shift_dr $end
$var reg 1 g capture_dr $end
$var reg 1 h update_dr $end
$var reg 1 i tdo_sel $end
$var reg 4 j tap_state_d [3:0] $end
$var reg 4 k tap_state_q [3:0] $end
$var reg 32 l idcode_d [31:0] $end
$var reg 32 m idcode_q [31:0] $end
$var reg 1 n bypass_d $end
$var reg 1 o bypass_q $end

$scope begin ir_update $end
$upscope $end

$scope begin dr_selection $end
$upscope $end

$scope begin output_selection $end
$upscope $end

$scope begin tdo_regs $end
$upscope $end

$scope begin tap_fsm $end
$upscope $end

$scope begin update_value $end
$upscope $end
$upscope $end

$scope module i_dtm_regs $end
$var wire 1 p tck_i $end
$var wire 1 3 trst_ni $end
$var wire 1 q update $end
$var wire 1 r capture $end
$var wire 1 s shift $end
$var wire 1 t tdi $end
$var wire 1 u dmi_select $end
$var wire 1 v dtmcs_select $end
$var wire 1 w jtag_dmi_clear $end
$var reg 1 x dmi_tdo $end
$var reg 1 y dtmcs_tdo $end
$var reg 1 z tck_o $end
$var reg 1 { dmi_clear $end
$var reg 41 | dmi_req_o [40:0] $end
$var wire 1 } dmi_req_ready $end
$var reg 1 ~ dmi_req_valid $end
$var reg 34 !! dmi_resp [33:0] $end
$var reg 1 "! dmi_resp_ready $end
$var wire 1 #! dmi_resp_valid $end
$var reg 3 $! state_d [2:0] $end
$var reg 3 %! state_q [2:0] $end
$var reg 2 &! error_d [1:0] $end
$var reg 2 '! error_q [1:0] $end
$var reg 2 (! op_d [1:0] $end
$var reg 2 )! op_q [1:0] $end
$var reg 32 *! dtmcs_d [31:0] $end
$var reg 32 +! dtmcs_q [31:0] $end
$var reg 7 ,! address_d [6:0] $end
$var reg 7 -! address_q [6:0] $end
$var reg 32 .! data_d [31:0] $end
$var reg 32 /! data_q [31:0] $end
$var reg 32 0! resp_data_d [31:0] $end
$var reg 32 1! resp_data_q [31:0] $end
$var reg 41 2! dmiaccess_d [40:0] $end
$var reg 41 3! dmiaccess_q [40:0] $end
$var reg 1 4! error_dmi_busy $end
$var reg 1 5! error_dmi_op_failed $end
$var reg 41 6! dmi [40:0] $end

$scope begin p_fsm $end
$upscope $end

$scope begin choose_dmiaccess $end
$upscope $end
$upscope $end

$scope module i_dtm_cdc $end
$var wire 1 7! tck $end
$var wire 1 3 trst_ni $end
$var wire 1 6 clk $end
$var wire 1 7 rst_ni $end
$var wire 1 8! jtag_dmi_clear_i $end
$var reg 41 9! jtag_dmi_req_i [40:0] $end
$var wire 1 :! jtag_dmi_req_valid_i $end
$var reg 1 ;! jtag_dmi_req_ready_o $end
$var reg 34 <! jtag_dmi_resp_o [33:0] $end
$var wire 1 =! jtag_dmi_resp_ready_i $end
$var reg 1 >! jtag_dmi_resp_valid_o $end
$var reg 1 ?! dbg_dmi_clear_o $end
$var reg 41 @! dbg_dmi_req_o [40:0] $end
$var reg 1 A! dbg_dmi_req_valid_o $end
$var wire 1 ; dbg_dmi_req_ready_i $end
$var reg 34 B! dbg_dmi_resp_i [33:0] $end
$var reg 1 C! dbg_dmi_resp_ready_o $end
$var wire 1 > dbg_dmi_resp_valid_i $end
$var reg 2 D! dmi_clear_sync [1:0] $end
$var reg 41 E! dmi_req_mid [40:0] $end
$var reg 1 F! dmi_req_valid_mid $end
$var reg 1 G! dmi_req_ready_mid $end
$var reg 34 H! dmi_resp_mid_1 [33:0] $end
$var reg 34 I! dmi_resp_mid_2 [33:0] $end
$var reg 1 J! dmi_resp_valid_mid_1 $end
$var reg 1 K! dmi_resp_ready_mid_1 $end
$var reg 1 L! dmi_resp_valid_mid_2 $end
$var reg 1 M! dmi_resp_ready_mid_2 $end

$scope module stage_req_0 $end
$var wire 1 6 clk_i $end
$var wire 1 7 rst_ni $end
$var reg 41 N! dmi_req_i [40:0] $end
$var wire 1 :! dmi_req_valid_i $end
$var reg 1 O! dmi_req_ready_o $end
$var reg 41 P! dmi_req_o [40:0] $end
$var reg 1 Q! dmi_req_valid_o $end
$var wire 1 R! dmi_req_ready_i $end
$var reg 41 S! req_q [40:0] $end
$var reg 1 T! valid_q $end
$upscope $end

$scope module stage_req_1 $end
$var wire 1 6 clk_i $end
$var wire 1 7 rst_ni $end
$var reg 41 U! dmi_req_i [40:0] $end
$var wire 1 V! dmi_req_valid_i $end
$var reg 1 W! dmi_req_ready_o $end
$var reg 41 X! dmi_req_o [40:0] $end
$var reg 1 Y! dmi_req_valid_o $end
$var wire 1 ; dmi_req_ready_i $end
$var reg 41 Z! req_q [40:0] $end
$var reg 1 [! valid_q $end
$upscope $end

$scope module stage_resp_0 $end
$var wire 1 7! tck_i $end
$var wire 1 3 trst_ni $end
$var reg 34 \! dmi_resp_i [33:0] $end
$var wire 1 > dmi_resp_valid_i $end
$var reg 1 ]! dmi_resp_ready_o $end
$var reg 34 ^! dmi_resp_o [33:0] $end
$var reg 1 _! dmi_resp_valid_o $end
$var wire 1 `! dmi_resp_ready_i $end
$var reg 34 a! resp_q [33:0] $end
$var reg 1 b! valid_q $end
$upscope $end

$scope module stage_resp_1 $end
$var wire 1 7! tck_i $end
$var wire 1 3 trst_ni $end
$var reg 34 c! dmi_resp_i [33:0] $end
$var wire 1 d! dmi_resp_valid_i $end
$var reg 1 e! dmi_resp_ready_o $end
$var reg 34 f! dmi_resp_o [33:0] $end
$var reg 1 g! dmi_resp_valid_o $end
$var wire 1 h! dmi_resp_ready_i $end
$var reg 34 i! resp_q [33:0] $end
$var reg 1 j! valid_q $end
$upscope $end

$scope module stage_resp_2 $end
$var wire 1 7! tck_i $end
$var wire 1 3 trst_ni $end
$var reg 34 k! dmi_resp_i [33:0] $end
$var wire 1 l! dmi_resp_valid_i $end
$var reg 1 m! dmi_resp_ready_o $end
$var reg 34 n! dmi_resp_o [33:0] $end
$var reg 1 o! dmi_resp_valid_o $end
$var wire 1 =! dmi_resp_ready_i $end
$var reg 34 p! resp_q [33:0] $end
$var reg 1 q! valid_q $end
$upscope $end
$upscope $end
$upscope $end
$upscope $end
$enddefinitions $end
#0
$dumpvars
0!
0"
0#
0$
1%
0&
0'
0(
bx )
x*
1+
b0 ,
x-
0.
0/
04
05
08
bx 9
x:
b0 <
x=
0?
0@
0A
0B
0C
0D
0E
0F
0G
1H
b0 I
0J
xK
bx L
1M
xN
0P
0Q
1R
0S
0T
0U
0V
0W
0X
0Z
b0 \
b0 ]
b1 ^
b1 _
0`
0a
1b
0c
0d
1e
0f
0g
0h
1i
b0 j
b0 k
b11011110101011011011111011101111 l
b11011110101011011011111011101111 m
0n
0o
0x
0y
0z
1{
b0 |
0~
bx !!
1"!
b0 $!
b0 %!
b0 &!
b0 '!
b0 (!
b0 )!
b0 *!
b0 +!
b0 ,!
b0 -!
b0 .!
b0 /!
b0 0!
bx 1!
b0 2!
b0 3!
04!
05!
b0 6!
b0 9!
x;!
bx <!
x>!
0?!
bx @!
xA!
b0 B!
xC!
b0 D!
bx E!
xF!
xG!
bx H!
bx I!
xJ!
xK!
xL!
xM!
b0 N!
xO!
bx P!
xQ!
bx S!
xT!
bx U!
xW!
bx X!
xY!
bx Z!
x[!
b0 \!
x]!
bx ^!
x_!
bx a!
xb!
bx c!
xe!
bx f!
xg!
bx i!
xj!
bx k!
xm!
bx n!
xo!
bx p!
xq!
b11011110101011011011111011101111 O
00
11
02
03
06
07
1;
0>
0Y
0[
0p
0q
0r
0s
0t
0u
0v
1w
x}
x#!
07!
18!
0:!
1=!
xR!
xV!
x`!
xd!
xh!
xl!
$end
#10000
1"
16
0T!
b0 S!
0[!
b0 Z!
b0 X!
0Y!
1W!
b0 P!
0Q!
1O!
1;!
0F!
b0 E!
1G!
0A!
b0 @!
b0 9
0:
b0 U!
1K
0V!
1R!
0*
b0 )
1}
bx 0!
b0 0!
#20000
1!
0"
10
06
1W
1G
17!
1p
1z
b0 1!
0b!
b0 a!
0j!
b0 i!
0q!
b0 p!
b0 n!
0o!
1m!
b0 f!
0g!
1e!
b0 ^!
0_!
1]!
1C!
0J!
b0 H!
1K!
0L!
b0 I!
1M!
0>!
b0 <!
b0 L
0N
b0 k!
b0 c!
1=
0d!
1`!
0l!
1h!
1-
b0 !!
0#!
#30000
1"
16
#40000
1#
0!
0"
13
00
06
0W
0G
07!
0p
0z
#50000
1"
16
#60000
1!
0"
10
06
1W
1G
17!
1p
1z
1P
14
1'
#70000
1"
16
#80000
1$
0!
0"
17
00
06
0W
0G
07!
0p
0z
#90000
1"
16
b1 D!
#100000
1!
0"
10
06
1W
1G
17!
1p
1z
#110000
1"
16
b11 D!
1?!
18
1/
#120000
0!
0"
00
06
0W
0G
07!
0p
0z
#130000
1"
16
#140000
1!
0"
10
06
1W
1G
17!
1p
1z
#150000
1"
16
#160000
0!
0"
00
06
0W
0G
07!
0p
0z
#170000
1"
16
#180000
1!
0"
10
06
1W
1G
17!
1p
1z
#190000
1"
16
#200000
0!
0"
00
06
0W
0G
07!
0p
0z
#210000
1"
16
#220000
1!
0"
10
06
1W
1G
17!
1p
1z
#230000
1"
16
#240000
0%
0!
0"
01
00
06
0W
0G
07!
0p
0z
0b
b1 j
1b
#250000
1"
16
#260000
1!
0"
10
06
1W
1G
17!
1p
1z
b1 k
0b
0R
0H
08!
0w
0{
#270000
1"
16
b10 D!
#280000
1%
0!
0"
11
00
06
0W
0G
07!
0p
0z
b10 j
#290000
1"
16
b0 D!
0?!
08
0/
#300000
1!
0"
10
06
1W
1G
17!
1p
1z
b10 k
b1001 j
#310000
1"
16
#320000
0!
0"
00
06
0W
0G
07!
0p
0z
#330000
1"
16
#340000
1!
0"
10
06
1W
1G
17!
1p
1z
b1001 k
b0 j
#350000
1"
16
#360000
0%
0!
0"
01
00
06
0W
0G
07!
0p
0z
b1010 j
#370000
1"
16
#380000
1!
0"
10
06
1W
1G
17!
1p
1z
b1010 k
1a
b1011 j
b101 \
#390000
1"
16
#400000
0!
0"
00
06
0W
0G
07!
0p
0z
#410000
1"
16
#420000
1!
0"
10
06
1W
1G
17!
1p
1z
b101 ]
b1011 k
0a
1`
b10 \
#430000
1"
16
#440000
1&
0!
0"
12
00
06
0W
1V
1F
0G
1t
07!
0p
0z
b101 \
b10010 \
#450000
1"
16
#460000
1!
0"
10
06
1W
1G
17!
1p
1z
b10010 ]
1Q
15
1(
b11001 \
0i
#470000
1"
16
#480000
0&
0!
0"
02
00
06
0W
0V
0F
0G
0t
07!
0p
0z
b10010 \
b1001 \
#490000
1"
16
#500000
1!
0"
10
06
1W
1G
17!
1p
1z
b1001 ]
0P
04
0'
b100 \
1i
#510000
1"
16
#520000
0!
0"
00
06
0W
0G
07!
0p
0z
#530000
1"
16
#540000
1!
0"
10
06
1W
1G
17!
1p
1z
b100 ]
1P
14
1'
b10 \
0i
#550000
1"
16
#560000
0!
0"
00
06
0W
0G
07!
0p
0z
#570000
1"
16
#580000
1!
0"
10
06
1W
1G
17!
1p
1z
b10 ]
0P
04
0'
b1 \
#590000
1"
16
#600000
1%
1&
0!
0"
11
12
00
06
0W
1V
1F
0G
1t
07!
0p
0z
b10 \
b10001 \
0`
1`
b1100 j
b10 \
b10001 \
#610000
1"
16
#620000
1!
0"
10
06
1W
1G
17!
1p
1z
b10001 ]
b1100 k
0`
b1111 j
1i
#630000
1"
16
#640000
0!
0"
00
06
0W
0G
07!
0p
0z
#650000
1"
16
#660000
1!
0"
10
06
1W
1G
17!
1p
1z
1P
0Q
b1111 k
05
14
1'
0(
1c
b10 j
b10001 ^
#670000
1"
16
#680000
0%
0!
0"
01
00
06
0W
0G
07!
0p
0z
0c
1c
b1 j
b1 ^
b10001 ^
#690000
1"
16
#700000
1!
0"
10
06
1W
1G
17!
1p
1z
b10001 _
b1 k
0c
0e
1Z
0i
1B
1u
#710000
1"
16
#720000
1%
0!
0"
11
00
06
0W
0G
07!
0p
0z
b10 j
#730000
1"
16
#740000
1!
0"
10
06
1W
1G
17!
1p
1z
0P
b10 k
04
0'
b1001 j
#750000
1"
16
#760000
0%
0!
0"
01
00
06
0W
0G
07!
0p
0z
b11 j
#770000
1"
16
#780000
1!
0"
10
06
1W
1G
17!
1p
1z
b11 k
1g
b100 j
1T
1@
1r
#790000
1"
16
#800000
0!
0"
00
06
0W
0G
07!
0p
0z
#810000
1"
16
#820000
1!
0"
10
06
1W
1G
17!
1p
1z
b100 k
0g
1f
1U
0T
0@
1A
0r
1s
b10000000000000000000000000000000000000000 2!
#830000
1"
16
#840000
0&
0!
0"
02
00
06
0W
0V
0F
0G
0t
07!
0p
0z
b0 2!
#850000
1"
16
#860000
1!
0"
10
06
1W
1G
17!
1p
1z
1Q
15
1(
#870000
1"
16
#880000
1&
0!
0"
12
00
06
0W
1V
1F
0G
1t
07!
0p
0z
b10000000000000000000000000000000000000000 2!
#890000
1"
16
#900000
1!
0"
10
06
1W
1G
17!
1p
1z
b10000000000000000000000000000000000000000 3!
b10000000000000000000000000000000000000000 6!
b11000000000000000000000000000000000000000 2!
#910000
1"
16
#920000
0!
0"
00
06
0W
0G
07!
0p
0z
#930000
1"
16
#940000
1!
0"
10
06
1W
1G
17!
1p
1z
b11000000000000000000000000000000000000000 3!
b11000000000000000000000000000000000000000 6!
b11100000000000000000000000000000000000000 2!
#950000
1"
16
#960000
0&
0!
0"
02
00
06
0W
0V
0F
0G
0t
07!
0p
0z
b11000000000000000000000000000000000000000 2!
b1100000000000000000000000000000000000000 2!
#970000
1"
16
#980000
1!
0"
10
06
1W
1G
17!
1p
1z
b1100000000000000000000000000000000000000 3!
b1100000000000000000000000000000000000000 6!
b110000000000000000000000000000000000000 2!
#990000
1"
16
#1000000
0!
0"
00
06
0W
0G
07!
0p
0z
#1010000
1"
16
#1020000
1!
0"
10
06
1W
1G
17!
1p
1z
b110000000000000000000000000000000000000 3!
b110000000000000000000000000000000000000 6!
b11000000000000000000000000000000000000 2!
#1030000
1"
16
#1040000
0!
0"
00
06
0W
0G
07!
0p
0z
#1050000
1"
16
#1060000
1!
0"
10
06
1W
1G
17!
1p
1z
b11000000000000000000000000000000000000 3!
b11000000000000000000000000000000000000 6!
b1100000000000000000000000000000000000 2!
#1070000
1"
16
#1080000
0!
0"
00
06
0W
0G
07!
0p
0z
#1090000
1"
16
#1100000
1!
0"
10
06
1W
1G
17!
1p
1z
b1100000000000000000000000000000000000 3!
b1100000000000000000000000000000000000 6!
b110000000000000000000000000000000000 2!
#1110000
1"
16
#1120000
0!
0"
00
06
0W
0G
07!
0p
0z
#1130000
1"
16
#1140000
1!
0"
10
06
1W
1G
17!
1p
1z
b110000000000000000000000000000000000 3!
b110000000000000000000000000000000000 6!
b11000000000000000000000000000000000 2!
#1150000
1"
16
#1160000
1&
0!
0"
12
00
06
0W
1V
1F
0G
1t
07!
0p
0z
b110000000000000000000000000000000000 2!
b10000011000000000000000000000000000000000 2!
#1170000
1"
16
#1180000
1!
0"
10
06
1W
1G
17!
1p
1z
b10000011000000000000000000000000000000000 3!
b10000011000000000000000000000000000000000 6!
b11000001100000000000000000000000000000000 2!
#1190000
1"
16
#1200000
0!
0"
00
06
0W
0G
07!
0p
0z
#1210000
1"
16
#1220000
1!
0"
10
06
1W
1G
17!
1p
1z
b11000001100000000000000000000000000000000 3!
b11000001100000000000000000000000000000000 6!
b11100000110000000000000000000000000000000 2!
#1230000
1"
16
#1240000
0!
0"
00
06
0W
0G
07!
0p
0z
#1250000
1"
16
#1260000
1!
0"
10
06
1W
1G
17!
1p
1z
b11100000110000000000000000000000000000000 3!
b11100000110000000000000000000000000000000 6!
b11110000011000000000000000000000000000000 2!
#1270000
1"
16
#1280000
0!
0"
00
06
0W
0G
07!
0p
0z
#1290000
1"
16
#1300000
1!
0"
10
06
1W
1G
17!
1p
1z
b11110000011000000000000000000000000000000 3!
b11110000011000000000000000000000000000000 6!
b11111000001100000000000000000000000000000 2!
#1310000
1"
16
#1320000
0!
0"
00
06
0W
0G
07!
0p
0z
#1330000
1"
16
#1340000
1!
0"
10
06
1W
1G
17!
1p
1z
b11111000001100000000000000000000000000000 3!
b11111000001100000000000000000000000000000 6!
b11111100000110000000000000000000000000000 2!
#1350000
1"
16
#1360000
0!
0"
00
06
0W
0G
07!
0p
0z
#1370000
1"
16
#1380000
1!
0"
10
06
1W
1G
17!
1p
1z
b11111100000110000000000000000000000000000 3!
b11111100000110000000000000000000000000000 6!
b11111110000011000000000000000000000000000 2!
#1390000
1"
16
#1400000
0!
0"
00
06
0W
0G
07!
0p
0z
#1410000
1"
16
#1420000
1!
0"
10
06
1W
1G
17!
1p
1z
b11111110000011000000000000000000000000000 3!
b11111110000011000000000000000000000000000 6!
b11111111000001100000000000000000000000000 2!
#1430000
1"
16
#1440000
0!
0"
00
06
0W
0G
07!
0p
0z
#1450000
1"
16
#1460000
1!
0"
10
06
1W
1G
17!
1p
1z
b11111111000001100000000000000000000000000 3!
b11111111000001100000000000000000000000000 6!
b11111111100000110000000000000000000000000 2!
#1470000
1"
16
#1480000
0!
0"
00
06
0W
0G
07!
0p
0z
#1490000
1"
16
#1500000
1!
0"
10
06
1W
1G
17!
1p
1z
b11111111100000110000000000000000000000000 3!
b11111111100000110000000000000000000000000 6!
b11111111110000011000000000000000000000000 2!
#1510000
1"
16
#1520000
0!
0"
00
06
0W
0G
07!
0p
0z
#1530000
1"
16
#1540000
1!
0"
10
06
1W
1G
17!
1p
1z
b11111111110000011000000000000000000000000 3!
b11111111110000011000000000000000000000000 6!
b11111111111000001100000000000000000000000 2!
#1550000
1"
16
#1560000
0!
0"
00
06
0W
0G
07!
0p
0z
#1570000
1"
16
#1580000
1!
0"
10
06
1W
1G
17!
1p
1z
b11111111111000001100000000000000000000000 3!
b11111111111000001100000000000000000000000 6!
b11111111111100000110000000000000000000000 2!
#1590000
1"
16
#1600000
0!
0"
00
06
0W
0G
07!
0p
0z
#1610000
1"
16
#1620000
1!
0"
10
06
1W
1G
17!
1p
1z
b11111111111100000110000000000000000000000 3!
b11111111111100000110000000000000000000000 6!
b11111111111110000011000000000000000000000 2!
#1630000
1"
16
#1640000
0!
0"
00
06
0W
0G
07!
0p
0z
#1650000
1"
16
#1660000
1!
0"
10
06
1W
1G
17!
1p
1z
b11111111111110000011000000000000000000000 3!
b11111111111110000011000000000000000000000 6!
b11111111111111000001100000000000000000000 2!
#1670000
1"
16
#1680000
0!
0"
00
06
0W
0G
07!
0p
0z
#1690000
1"
16
#1700000
1!
0"
10
06
1W
1G
17!
1p
1z
b11111111111111000001100000000000000000000 3!
b11111111111111000001100000000000000000000 6!
b11111111111111100000110000000000000000000 2!
#1710000
1"
16
#1720000
0!
0"
00
06
0W
0G
07!
0p
0z
#1730000
1"
16
#1740000
1!
0"
10
06
1W
1G
17!
1p
1z
b11111111111111100000110000000000000000000 3!
b11111111111111100000110000000000000000000 6!
b11111111111111110000011000000000000000000 2!
#1750000
1"
16
#1760000
0!
0"
00
06
0W
0G
07!
0p
0z
#1770000
1"
16
#1780000
1!
0"
10
06
1W
1G
17!
1p
1z
b11111111111111110000011000000000000000000 3!
b11111111111111110000011000000000000000000 6!
b11111111111111111000001100000000000000000 2!
#1790000
1"
16
#1800000
0!
0"
00
06
0W
0G
07!
0p
0z
#1810000
1"
16
#1820000
1!
0"
10
06
1W
1G
17!
1p
1z
b11111111111111111000001100000000000000000 3!
b11111111111111111000001100000000000000000 6!
b11111111111111111100000110000000000000000 2!
#1830000
1"
16
#1840000
0!
0"
00
06
0W
0G
07!
0p
0z
#1850000
1"
16
#1860000
1!
0"
10
06
1W
1G
17!
1p
1z
b11111111111111111100000110000000000000000 3!
b11111111111111111100000110000000000000000 6!
b11111111111111111110000011000000000000000 2!
#1870000
1"
16
#1880000
0!
0"
00
06
0W
0G
07!
0p
0z
#1890000
1"
16
#1900000
1!
0"
10
06
1W
1G
17!
1p
1z
b11111111111111111110000011000000000000000 3!
b11111111111111111110000011000000000000000 6!
b11111111111111111111000001100000000000000 2!
#1910000
1"
16
#1920000
0!
0"
00
06
0W
0G
07!
0p
0z
#1930000
1"
16
#1940000
1!
0"
10
06
1W
1G
17!
1p
1z
b11111111111111111111000001100000000000000 3!
b11111111111111111111000001100000000000000 6!
b11111111111111111111100000110000000000000 2!
#1950000
1"
16
#1960000
0!
0"
00
06
0W
0G
07!
0p
0z
#1970000
1"
16
#1980000
1!
0"
10
06
1W
1G
17!
1p
1z
b11111111111111111111100000110000000000000 3!
b11111111111111111111100000110000000000000 6!
b11111111111111111111110000011000000000000 2!
#1990000
1"
16
#2000000
0&
0!
0"
02
00
06
0W
0V
0F
0G
0t
07!
0p
0z
b11111111111111111111100000110000000000000 2!
b1111111111111111111110000011000000000000 2!
#2010000
1"
16
#2020000
1!
0"
10
06
1W
1G
17!
1p
1z
b1111111111111111111110000011000000000000 3!
b1111111111111111111110000011000000000000 6!
b111111111111111111111000001100000000000 2!
#2030000
1"
16
#2040000
0!
0"
00
06
0W
0G
07!
0p
0z
#2050000
1"
16
#2060000
1!
0"
10
06
1W
1G
17!
1p
1z
b111111111111111111111000001100000000000 3!
b111111111111111111111000001100000000000 6!
b11111111111111111111100000110000000000 2!
#2070000
1"
16
#2080000
0!
0"
00
06
0W
0G
07!
0p
0z
#2090000
1"
16
#2100000
1!
0"
10
06
1W
1G
17!
1p
1z
b11111111111111111111100000110000000000 3!
b11111111111111111111100000110000000000 6!
b1111111111111111111110000011000000000 2!
#2110000
1"
16
#2120000
0!
0"
00
06
0W
0G
07!
0p
0z
#2130000
1"
16
#2140000
1!
0"
10
06
1W
1G
17!
1p
1z
b1111111111111111111110000011000000000 3!
b1111111111111111111110000011000000000 6!
b111111111111111111111000001100000000 2!
#2150000
1"
16
#2160000
0!
0"
00
06
0W
0G
07!
0p
0z
#2170000
1"
16
#2180000
1!
0"
10
06
1W
1G
17!
1p
1z
b111111111111111111111000001100000000 3!
b111111111111111111111000001100000000 6!
b11111111111111111111100000110000000 2!
#2190000
1"
16
#2200000
0!
0"
00
06
0W
0G
07!
0p
0z
#2210000
1"
16
#2220000
1!
0"
10
06
1W
1G
17!
1p
1z
b11111111111111111111100000110000000 3!
b11111111111111111111100000110000000 6!
b1111111111111111111110000011000000 2!
#2230000
1"
16
#2240000
0!
0"
00
06
0W
0G
07!
0p
0z
#2250000
1"
16
#2260000
1!
0"
10
06
1W
1G
17!
1p
1z
b1111111111111111111110000011000000 3!
b1111111111111111111110000011000000 6!
b111111111111111111111000001100000 2!
#2270000
1"
16
#2280000
0!
0"
00
06
0W
0G
07!
0p
0z
#2290000
1"
16
#2300000
1!
0"
10
06
1W
1G
17!
1p
1z
b111111111111111111111000001100000 3!
b111111111111111111111000001100000 6!
b11111111111111111111100000110000 2!
#2310000
1"
16
#2320000
0!
0"
00
06
0W
0G
07!
0p
0z
#2330000
1"
16
#2340000
1!
0"
10
06
1W
1G
17!
1p
1z
b11111111111111111111100000110000 3!
b11111111111111111111100000110000 6!
b1111111111111111111110000011000 2!
#2350000
1"
16
#2360000
1&
0!
0"
12
00
06
0W
1V
1F
0G
1t
07!
0p
0z
b11111111111111111111100000110000 2!
b10000000001111111111111111111110000011000 2!
#2370000
1"
16
#2380000
1!
0"
10
06
1W
1G
17!
1p
1z
b10000000001111111111111111111110000011000 3!
b10000000001111111111111111111110000011000 6!
b11000000000111111111111111111111000001100 2!
#2390000
1"
16
#2400000
0&
0!
0"
02
00
06
0W
0V
0F
0G
0t
07!
0p
0z
b10000000001111111111111111111110000011000 2!
b1000000000111111111111111111111000001100 2!
#2410000
1"
16
#2420000
1!
0"
10
06
1W
1G
17!
1p
1z
b1000000000111111111111111111111000001100 3!
b1000000000111111111111111111111000001100 6!
b100000000011111111111111111111100000110 2!
#2430000
1"
16
#2440000
1%
0!
0"
11
00
06
0W
0G
07!
0p
0z
0f
1f
b101 j
#2450000
1"
16
#2460000
1!
0"
10
06
1W
1G
17!
1p
1z
b100000000011111111111111111111100000110 3!
b101 k
b100000000011111111111111111111100000110 6!
0f
b1000 j
b10000000001111111111111111111110000011 2!
0U
0A
0s
b100000000011111111111111111111100000110 2!
#2470000
1"
16
#2480000
0!
0"
00
06
0W
0G
07!
0p
0z
#2490000
1"
16
#2500000
1!
0"
10
06
1W
1G
17!
1p
1z
0Q
b1000 k
05
0(
1h
b10 j
1S
1?
1q
b10000 ,!
b111111111111111111111000001 .!
b10 (!
b11 $!
#2510000
1"
16
#2520000
0%
0!
0"
01
00
06
0W
0G
07!
0p
0z
0h
1h
b1 j
#2530000
1"
16
#2540000
1!
0"
10
06
1W
1G
17!
1p
1z
b10000 -!
b111111111111111111111000001 /!
b10 )!
b11 %!
b1 k
b1000000000000000000000000000000000 |
b1000000111111111111111111111000001 |
b100001000000111111111111111111111000001 |
b100001000000111111111111111111111000001 I
b100001000000111111111111111111111000001 9!
b100001000000111111111111111111111000001 N!
0h
1~
b100 $!
14!
b11 &!
1J
0S
0?
1:!
0q
b0 &!
b11 $!
0~
04!
1~
b100 $!
#2550000
1"
16
b100001000000111111111111111111111000001 S!
1T!
1Q!
b100001000000111111111111111111111000001 P!
b100001000000111111111111111111111000001 E!
1F!
b100001000000111111111111111111111000001 U!
1V!
#2560000
0!
0"
00
06
0W
0G
07!
0p
0z
#2570000
1"
16
b100001000000111111111111111111111000001 Z!
1[!
1Y!
b100001000000111111111111111111111000001 X!
b100001000000111111111111111111111000001 @!
1A!
1:
b100001000000111111111111111111111000001 9
b100001000000111111111111111111111000001 )
1*
#2580000
1!
0"
10
06
1W
1G
17!
1p
1z
b100 %!
0~
0J
0:!
#2590000
1"
16
0T!
0Q!
0F!
0V!
#2600000
0!
0"
00
06
0W
0G
07!
0p
0z
#2610000
1"
16
0[!
0Y!
0A!
0:
0*
#2620000
1!
0"
10
06
1W
1G
17!
1p
1z
#2630000
1"
16
#2640000
0!
0"
00
06
0W
0G
07!
0p
0z
#2650000
1"
16
#2660000
1!
0"
10
06
1W
1G
17!
1p
1z
#2670000
1"
16
#2680000
0!
0"
00
06
0W
0G
07!
0p
0z
#2690000
1"
16
#2700000
1!
0"
10
06
1W
1G
17!
1p
1z
#2710000
1"
16
#2720000
0!
0"
00
06
0W
0G
07!
0p
0z
#2730000
1"
16
#2740000
1!
0"
10
06
1W
1G
17!
1p
1z
#2750000
1"
16
#2760000
1.
0!
0"
1>
00
06
0W
0G
07!
0p
0z
#2770000
1"
16
#2780000
1!
0"
10
06
1W
1G
17!
1p
1z
1b!
1_!
1J!
1d!
#2790000
1"
16
#2800000
0!
0"
00
06
0W
0G
07!
0p
0z
#2810000
1"
16
#2820000
1!
0"
10
06
1W
1G
17!
1p
1z
1j!
1g!
1L!
1l!
#2830000
1"
16
#2840000
0!
0"
00
06
0W
0G
07!
0p
0z
#2850000
1"
16
